ID_SchülerIn;Vorname;Nachname;FK_Klasse
1;Ulla;Jürgens;1
2;Harry;Schmidt;2
3;Sepp;Jäger;1
3;Sepp;Jäger;1
3;Sepp;Jäger;1
4;Evan;Olsen ;3
5;Tom;Jürgens ;2
6;Justus;Hasler ;3
6;Justus;Hasler ;3
7;Igor;Kustov ;4
7;Igor;Kustov;4